<?xml version="1.0" encoding="UTF-8" standalone="no"?>
<svg width="60px" height="44px" viewBox="0 0 60 44" version="1.1" xmlns="http://www.w3.org/2000/svg" xmlns:xlink="http://www.w3.org/1999/xlink" xmlns:sketch="http://www.bohemiancoding.com/sketch/ns">
    <!-- Generator: Sketch 3.3.3 (12072) - http://www.bohemiancoding.com/sketch -->
    <title>logo</title>
    <desc>Created with Sketch.</desc>
    <defs></defs>
    <g id="Page-1" stroke="none" stroke-width="1" fill="none" fill-rule="evenodd" sketch:type="MSPage">
        <g id="Desktop" sketch:type="MSArtboardGroup" transform="translate(-327.000000, -110.000000)" stroke="#FFFFFF" stroke-width="3.54516807">
            <g id="logo" sketch:type="MSLayerGroup" transform="translate(329.000000, 112.000000)">
                <path d="M28.0015738,3.18488035 C35.5942531,3.1661122 36.9908643,0.0768581081 41.5720927,0.0768581081 C46.1672797,0.0768581081 49.1635432,3.2660473 52.1703238,14.7103041 C55.1771045,26.1545608 58.727871,37.542652 52.6400172,39.5777027 C46.5521635,41.6127534 41.5308189,34.0768581 36.9878356,29.3669764 C34.533667,26.8226473 30.9502515,25.8418616 28,25.8270292 C25.0497485,25.8418616 21.466333,26.8226473 19.0121644,29.3669764 C14.4691811,34.0768581 9.44783653,41.6127534 3.35998276,39.5777027 C-2.72787102,37.542652 0.822895494,26.1545608 3.82967615,14.7103041 C6.83645681,3.2660473 9.82146106,0.379094504 14.4279073,0.0768581081 C19.0209952,-0.224501828 20.4061979,3.16521801 28.0015738,3.18488035 Z" id="Path-1" sketch:type="MSShapeGroup"></path>
                <ellipse id="Oval-1" sketch:type="MSShapeGroup" cx="17.0113208" cy="14.7027027" rx="5.17735849" ry="5.2972973"></ellipse>
                <path d="M35.7132075,18.2702703 C36.4718175,18.2702703 37.0867925,17.6410488 37.0867925,16.8648649 C37.0867925,16.0886809 36.4718175,15.4594595 35.7132075,15.4594595 C34.9545976,15.4594595 34.3396226,16.0886809 34.3396226,16.8648649 C34.3396226,17.6410488 34.9545976,18.2702703 35.7132075,18.2702703 Z" id="Oval-1-Copy" fill="#FFFFFF" sketch:type="MSShapeGroup"></path>
                <path d="M40.5735849,12.3243243 C41.3321949,12.3243243 41.9471698,11.6951029 41.9471698,10.9189189 C41.9471698,10.1427349 41.3321949,9.51351351 40.5735849,9.51351351 C39.8149749,9.51351351 39.2,10.1427349 39.2,10.9189189 C39.2,11.6951029 39.8149749,12.3243243 40.5735849,12.3243243 Z" id="Oval-1-Copy-2" fill="#FFFFFF" sketch:type="MSShapeGroup"></path>
            </g>
        </g>
    </g>
</svg>